<?xml version="1.0" encoding="UTF-8"?>
<kml xmlns="http://www.opengis.net/kml/2.2" xmlns:gx="http://www.google.com/kml/ext/2.2" xmlns:kml="http://www.opengis.net/kml/2.2" xmlns:atom="http://www.w3.org/2005/Atom">
<Document id="hud">
	<name>1OOOL</name>

	<ScreenOverlay id="boussoule">

		<name>boussole47.0</name>
		<Icon>
			<href>http://earth.1000lieues.net/media/Logo.png</href>
		</Icon>
		<overlayXY x="0.5" y="0.5" xunits="fraction" yunits="fraction"/>
		<screenXY x="0.1" y="0.1" xunits="fraction" yunits="fraction"/>
		<rotationXY x="0.5" y="0.5" xunits="fraction" yunits="fraction"/>
		<size x="0.2" y="0" xunits="fraction" yunits="fraction"/>
		<rotation>-88</rotation>
	</ScreenOverlay>


	<Folder id="updates">
		<name>updates</name>
		<Folder id="refresh">
			<name>refresh</name>
			<NetworkLink>
				<Camera id="lacamera">
					<longitude>-1.3025954</longitude>
					<latitude>47.197407</latitude>
					<altitude>170</altitude>
					<heading>47</heading>
					<tilt>47</tilt>
					<roll>88</roll>
				</Camera>
				<flyToView>1</flyToView>
				<Link>
					<href>http://localhost:10000/refresh.kml</href>
					<refreshMode>onExpire</refreshMode>
				</Link>
			</NetworkLink>
		</Folder>
	</Folder>
</Document>
</kml>
